Métodos analíticos - 4 Componentes de modelación 1
…
Una vez que escribimos nuestro modelo, hacemos nuestra siguiente verificación a priori: dados los supuestos del modelo generativo, ¿nuestro estimador funciona apropiadamente para responder la pregunta de interés?

Utilizaremos una muestra de 350 personas simulada de nuestro proceso generador de datos. En cada caso, buscamos correr nuestro modelo y checar que nuestra estimación de la recta de regresión es consistente con los valores que utilizamos para generar los datos.

set.seed(881)
sims_inicial_check_tbl <- map_df(1:10, function(rep) {
  sim_peso_mod(352) |> mutate(rep = rep)
}) |> nest(datos_sim = c(H, W))
sims_tbl

# A tibble: 2,000 × 6
   alpha  beta sigma     H     W   rep
   <dbl> <dbl> <dbl> <dbl> <dbl> <int>
 1  61.0 0.203  22.9  165.  37.1     1
 2  61.0 0.203  22.9  176.  52.4     1
 3  61.0 0.203  22.9  154.  37.2     1
 4  61.0 0.203  22.9  162.  70.2     1
 5  61.0 0.203  22.9  156.  22.5     1
 6  61.0 0.203  22.9  158.  54.8     1
 7  61.0 0.203  22.9  173.  77.1     1
 8  61.0 0.203  22.9  174.  56.9     1
 9  61.0 0.203  22.9  150.  41.4     1
10  61.0 0.203  22.9  150.  41.6     1
# ℹ 1,990 more rows
…
