Métodos analíticos - 7 Buenos y malos controles
…
  C <- rbinom(n, 1, 1/(1+exp(-(-2 + 4 * T))))
  U <- rnorm(n, 0, 5)
  G <- rbinom(n, 1, 0.5)
  H <- rnorm(n, 170 - 10 * G, 20)
  PI <- rnorm(n, -20 +  0.5 * H + U, 10)
  PF <- rnorm(n, PI + U - 20 * T + 3 * C , 5)
  #V <- PF - (PI + U - 10 * T + 2 * C)
  B <- rbinom(n, 1, 1/(1 + exp(-(PF-50)/2)))
  tibble(G, H, T, PI, PF, B, C, Z)
}
set.seed(226)
peso_tbl <- sim_peso(1200)
peso_tbl

# A tibble: 1,200 × 8
       G     H     T    PI    PF     B     C       Z
   <int> <dbl> <int> <dbl> <dbl> <int> <int>   <dbl>
 1     0  152.     0  53.8  46.8     0     0 -0.701 
 2     0  211.     0  87.2  87.0     1     0 -0.328 
 3     0  169.     1  71.8  48.1     0     1 -0.256 
 4     0  174.     0  66.4  61.6     1     0  0.208 
 5     1  164.     0  64.0  63.9     1     0 -0.470 
 6     0  146.     0  46.9  48.9     0     0 -0.126 
 7     1  201.     0  69.9  74.4     1     0 -0.892 
 8     1  153.     0  40.2  28.7     0     1 -0.0218
 9     0  168.     1  58.1  26.3     0     1  0.221 
10     1  162.     0  56.0  63.4     1     0  0.126 
# ℹ 1,190 more rows
…
