Métodos analíticos - 12 Aplicaciones de modelos de espacio de estados
…
natalidad_tbl |> 
  filter(year(fecha) > 2008) |> 
  arrange(desc(abs(error))) |> 
  mutate(dia_sem = weekdays(fecha)) 

Warning: Current temporal ordering may yield unexpected results.
ℹ Suggest to sort by ``, `fecha` first.
Current temporal ordering may yield unexpected results.
ℹ Suggest to sort by ``, `fecha` first.
Current temporal ordering may yield unexpected results.
ℹ Suggest to sort by ``, `fecha` first.

# A tsibble: 2,922 x 5 [1D]
   fecha      nacimientos feb_29  error dia_sem
   <date>           <dbl>  <dbl>  <dbl> <chr>  
 1 2013-01-01        8.45      0 -0.202 martes 
 2 2009-11-02        8.64      0 -0.184 lunes  
 3 2012-12-25        8.47      0 -0.181 martes 
 4 2012-09-16        8.66      0  0.174 domingo
 5 2016-11-21        8.49      0 -0.172 lunes  
 6 2016-12-25        8.15      0  0.166 domingo
 7 2015-11-16        8.56      0 -0.157 lunes  
 8 2012-11-19        8.66      0 -0.150 lunes  
 9 2014-03-17        8.55      0 -0.148 lunes  
10 2011-11-21        8.69      0 -0.147 lunes  
# ℹ 2,912 more rows
…
