Métodos analíticos - 13 Más de flujo bayesiano
…
Adicionalmente, podemos ver si recuperamos o no los parámetros de la simulación. En primer lugar, calculamos el cuantil del valor verdadero para la posterior de la simulación:

resumen_cuantiles_tbl <- ajustes_apriori |> map_df(function(ajuste_lst){
  lambda_sim <- ajuste_lst$lambda_sim
  cuantiles_tbl <- ajuste_lst$ajuste$draws("lambda", format = "df") |> 
    mutate(menor = lambda_sim < lambda) |> 
    summarise(q_menor = mean(menor))
  cuantiles_tbl |> mutate(lambda_sim = lambda_sim)
})

Ahora podemos hacer una gráfica de cuantiles: si estamos recuperando correctamente los parámetros, la distribución de los cuantiles de los valores verdaderos en la posterior debe ser cercana a uniforme (pues si \(y\sim F\), entonces \(P(F(y)<t)) = t\) para cualquier \(t\)):

resumen_cuantiles_tbl

# A tibble: 40 × 2
   q_menor lambda_sim
     <dbl>      <dbl>
 1   0.661       1.83
 2   0.7         5.38
 3   0.827       4.15
 4   0.489       9.94
 5   0.866       1.54
 6   0.783       7.33
 7   0.293       8.82
 8   0.604       5.14
 9   0.08        1.28
10   0.312       7.34
# ℹ 30 more rows
…
